Time dd/mm/yyyy hh:mm:ss	Diam
27/10/2013 03:22:40	1.13081
27/10/2013 03:22:45	1.13114
27/10/2013 03:22:51	1.13147
27/10/2013 03:22:57	1.13181
27/10/2013 03:23:03	1.13216
27/10/2013 03:23:09	1.1325
27/10/2013 03:23:15	1.13285
27/10/2013 03:23:21	1.1332
27/10/2013 03:23:27	1.13356
27/10/2013 03:23:32	1.13392
27/10/2013 03:23:38	1.13428
27/10/2013 03:23:44	1.13465
27/10/2013 03:23:50	1.13502
27/10/2013 03:23:56	1.13539
27/10/2013 03:24:02	1.13577
27/10/2013 03:24:08	1.13615
27/10/2013 03:24:14	1.13653
27/10/2013 03:24:20	1.13692
27/10/2013 03:24:25	1.13732
27/10/2013 03:24:31	1.13771
27/10/2013 03:24:37	1.13811
27/10/2013 03:24:43	1.13852
27/10/2013 03:24:49	1.13892
27/10/2013 03:24:55	1.13934
27/10/2013 03:25:01	1.13975
27/10/2013 03:25:07	1.14017
27/10/2013 03:25:13	1.1406
27/10/2013 03:25:18	1.14103
27/10/2013 03:25:24	1.14146
27/10/2013 03:25:30	1.14189
27/10/2013 03:25:36	1.14234
27/10/2013 03:25:42	1.14278
27/10/2013 03:25:48	1.14323
27/10/2013 03:25:54	1.14368
27/10/2013 03:26:00	1.14414
27/10/2013 03:26:06	1.14461
27/10/2013 03:26:11	1.14507
27/10/2013 03:26:17	1.14555
27/10/2013 03:26:23	1.14602
27/10/2013 03:26:29	1.1465
27/10/2013 03:26:35	1.14699
27/10/2013 03:26:41	1.14748
27/10/2013 03:26:47	1.14797
27/10/2013 03:26:53	1.14847
27/10/2013 03:26:58	1.14898
27/10/2013 03:27:04	1.14949
27/10/2013 03:27:10	1.15
27/10/2013 03:27:16	1.15052
27/10/2013 03:27:22	1.15104
27/10/2013 03:27:28	1.15157
27/10/2013 03:27:34	1.15211
27/10/2013 03:27:40	1.15265
27/10/2013 03:27:46	1.15319
27/10/2013 03:27:51	1.15374
27/10/2013 03:27:57	1.15429
27/10/2013 03:28:03	1.15485
27/10/2013 03:28:09	1.15542
27/10/2013 03:28:15	1.15599
27/10/2013 03:28:21	1.15657
27/10/2013 03:28:27	1.15715
27/10/2013 03:28:33	1.15774
27/10/2013 03:28:39	1.15833
27/10/2013 03:28:44	1.15893
27/10/2013 03:28:50	1.15953
27/10/2013 03:28:56	1.16014
27/10/2013 03:29:02	1.16075
27/10/2013 03:29:08	1.16137
27/10/2013 03:29:14	1.162
27/10/2013 03:29:20	1.16263
27/10/2013 03:29:26	1.16327
27/10/2013 03:29:32	1.16392
27/10/2013 03:29:37	1.16457
27/10/2013 03:29:43	1.16522
27/10/2013 03:29:49	1.16589
27/10/2013 03:29:55	1.16655
27/10/2013 03:30:01	1.16723
27/10/2013 03:30:07	1.16791
27/10/2013 03:30:13	1.1686
27/10/2013 03:30:19	1.16929
27/10/2013 03:30:24	1.16999
27/10/2013 03:30:30	1.1707
27/10/2013 03:30:36	1.17141
27/10/2013 03:30:42	1.17213
27/10/2013 03:30:48	1.17286
27/10/2013 03:30:54	1.17359
27/10/2013 03:31:00	1.17433
27/10/2013 03:31:06	1.17508
27/10/2013 03:31:12	1.17583
27/10/2013 03:31:17	1.17659
27/10/2013 03:31:23	1.17736
27/10/2013 03:31:29	1.17814
27/10/2013 03:31:35	1.17892
27/10/2013 03:31:41	1.17971
27/10/2013 03:31:47	1.1805
27/10/2013 03:31:53	1.18131
27/10/2013 03:31:59	1.18212
27/10/2013 03:32:05	1.18293
27/10/2013 03:32:10	1.18376
27/10/2013 03:32:16	1.18459
27/10/2013 03:32:22	1.18543
27/10/2013 03:32:28	1.18628
27/10/2013 03:32:34	1.18714
27/10/2013 03:32:40	1.188
27/10/2013 03:32:46	1.18887
27/10/2013 03:32:52	1.18975
27/10/2013 03:32:58	1.19064
27/10/2013 03:33:03	1.19153
27/10/2013 03:33:09	1.19244
27/10/2013 03:33:15	1.19335
27/10/2013 03:33:21	1.19427
27/10/2013 03:33:27	1.19519
27/10/2013 03:33:33	1.19613
27/10/2013 03:33:39	1.19708
27/10/2013 03:33:45	1.19803
27/10/2013 03:33:50	1.19899
27/10/2013 03:33:56	1.19996
27/10/2013 03:34:02	1.20094
27/10/2013 03:34:08	1.20193
27/10/2013 03:34:14	1.20292
27/10/2013 03:34:20	1.20393
27/10/2013 03:34:26	1.20494
27/10/2013 03:34:32	1.20596
27/10/2013 03:34:38	1.20699
27/10/2013 03:34:43	1.20804
27/10/2013 03:34:49	1.20909
27/10/2013 03:34:55	1.21015
27/10/2013 03:35:01	1.21121
27/10/2013 03:35:07	1.21229
27/10/2013 03:35:13	1.21338
27/10/2013 03:35:19	1.21448
27/10/2013 03:35:25	1.21558
27/10/2013 03:35:31	1.2167
27/10/2013 03:35:36	1.21783
27/10/2013 03:35:42	1.21896
27/10/2013 03:35:48	1.22011
27/10/2013 03:35:54	1.22127
27/10/2013 03:36:00	1.22243
27/10/2013 03:36:06	1.22361
27/10/2013 03:36:12	1.2248
27/10/2013 03:36:18	1.22599
27/10/2013 03:36:24	1.2272
27/10/2013 03:36:29	1.22842
27/10/2013 03:36:35	1.22965
27/10/2013 03:36:41	1.23089
27/10/2013 03:36:47	1.23214
27/10/2013 03:36:53	1.2334
27/10/2013 03:36:59	1.23467
27/10/2013 03:37:05	1.23595
27/10/2013 03:37:11	1.23724
27/10/2013 03:37:16	1.23855
27/10/2013 03:37:22	1.23987
27/10/2013 03:37:28	1.24119
27/10/2013 03:37:34	1.24253
27/10/2013 03:37:40	1.24388
27/10/2013 03:37:46	1.24524
27/10/2013 03:37:52	1.24662
27/10/2013 03:37:58	1.248
27/10/2013 03:38:04	1.2494
27/10/2013 03:38:09	1.25081
27/10/2013 03:38:15	1.25223
27/10/2013 03:38:21	1.25366
27/10/2013 03:38:27	1.25511
27/10/2013 03:38:33	1.25656
27/10/2013 03:38:39	1.25803
27/10/2013 03:38:45	1.25951
27/10/2013 03:38:51	1.26101
27/10/2013 03:38:57	1.26252
27/10/2013 03:39:02	1.26404
27/10/2013 03:39:08	1.26557
27/10/2013 03:39:14	1.26711
27/10/2013 03:39:20	1.26867
27/10/2013 03:39:26	1.27024
27/10/2013 03:39:32	1.27183
27/10/2013 03:39:38	1.27343
27/10/2013 03:39:44	1.27504
27/10/2013 03:39:50	1.27666
27/10/2013 03:39:55	1.2783
27/10/2013 03:40:01	1.27995
27/10/2013 03:40:07	1.28162
27/10/2013 03:40:13	1.2833
27/10/2013 03:40:19	1.28499
27/10/2013 03:40:25	1.2867
27/10/2013 03:40:31	1.28842
27/10/2013 03:40:37	1.29016
27/10/2013 03:40:43	1.29191
27/10/2013 03:40:48	1.29368
27/10/2013 03:40:54	1.29546
27/10/2013 03:41:00	1.29725
27/10/2013 03:41:06	1.29906
27/10/2013 03:41:12	1.30088
27/10/2013 03:41:18	1.30272
27/10/2013 03:41:24	1.30458
27/10/2013 03:41:30	1.30645
27/10/2013 03:41:35	1.30833
27/10/2013 03:41:41	1.31023
27/10/2013 03:41:47	1.31215
27/10/2013 03:41:53	1.31408
27/10/2013 03:41:59	1.31602
27/10/2013 03:42:05	1.31799
27/10/2013 03:42:11	1.31997
27/10/2013 03:42:17	1.32196
27/10/2013 03:42:23	1.32397
27/10/2013 03:42:28	1.326
27/10/2013 03:42:34	1.32804
27/10/2013 03:42:40	1.3301
27/10/2013 03:42:46	1.33218
27/10/2013 03:42:52	1.33427
27/10/2013 03:42:58	1.33639
27/10/2013 03:43:04	1.33851
27/10/2013 03:43:10	1.34066
27/10/2013 03:43:16	1.34282
27/10/2013 03:43:21	1.345
27/10/2013 03:43:27	1.3472
27/10/2013 03:43:33	1.34941
27/10/2013 03:43:39	1.35164
27/10/2013 03:43:45	1.35389
27/10/2013 03:43:51	1.35616
27/10/2013 03:43:57	1.35845
27/10/2013 03:44:03	1.36075
27/10/2013 03:44:09	1.36307
27/10/2013 03:44:14	1.36541
27/10/2013 03:44:20	1.36777
27/10/2013 03:44:26	1.37015
27/10/2013 03:44:32	1.37255
27/10/2013 03:44:38	1.37496
27/10/2013 03:44:44	1.3774
27/10/2013 03:44:50	1.37985
27/10/2013 03:44:56	1.38232
27/10/2013 03:45:01	1.38482
27/10/2013 03:45:07	1.38733
27/10/2013 03:45:13	1.38986
27/10/2013 03:45:19	1.39241
27/10/2013 03:45:25	1.39498
27/10/2013 03:45:31	1.39758
27/10/2013 03:45:37	1.40019
27/10/2013 03:45:43	1.40282
27/10/2013 03:45:49	1.40547
27/10/2013 03:45:54	1.40815
27/10/2013 03:46:00	1.41084
27/10/2013 03:46:06	1.41356
27/10/2013 03:46:12	1.41629
27/10/2013 03:46:18	1.41905
27/10/2013 03:46:24	1.42183
27/10/2013 03:46:30	1.42463
27/10/2013 03:46:36	1.42745
27/10/2013 03:46:42	1.43029
27/10/2013 03:46:47	1.43316
27/10/2013 03:46:53	1.43605
27/10/2013 03:46:59	1.43895
27/10/2013 03:47:05	1.44189
27/10/2013 03:47:11	1.44484
27/10/2013 03:47:17	1.44782
27/10/2013 03:47:23	1.45082
27/10/2013 03:47:29	1.45384
27/10/2013 03:47:35	1.45688
27/10/2013 03:47:40	1.45995
27/10/2013 03:47:46	1.46304
27/10/2013 03:47:52	1.46616
27/10/2013 03:47:58	1.4693
27/10/2013 03:48:04	1.47246
27/10/2013 03:48:10	1.47565
27/10/2013 03:48:16	1.47886
27/10/2013 03:48:22	1.48209
27/10/2013 03:48:27	1.48535
27/10/2013 03:48:33	1.48863
27/10/2013 03:48:39	1.49194
27/10/2013 03:48:45	1.49527
27/10/2013 03:48:51	1.49863
27/10/2013 03:48:57	1.50202
27/10/2013 03:49:03	1.50542
27/10/2013 03:49:09	1.50886
27/10/2013 03:49:15	1.51232
27/10/2013 03:49:20	1.5158
27/10/2013 03:49:26	1.51931
27/10/2013 03:49:32	1.52285
27/10/2013 03:49:38	1.52641
27/10/2013 03:49:44	1.53
27/10/2013 03:49:50	1.53362
27/10/2013 03:49:56	1.53726
27/10/2013 03:50:02	1.54093
27/10/2013 03:50:08	1.54463
27/10/2013 03:50:13	1.54835
27/10/2013 03:50:19	1.5521
27/10/2013 03:50:25	1.55588
27/10/2013 03:50:31	1.55968
27/10/2013 03:50:37	1.56352
27/10/2013 03:50:43	1.56738
27/10/2013 03:50:49	1.57127
27/10/2013 03:50:55	1.57519
27/10/2013 03:51:01	1.57914
27/10/2013 03:51:06	1.58311
27/10/2013 03:51:12	1.58712
27/10/2013 03:51:18	1.59115
27/10/2013 03:51:24	1.59521
27/10/2013 03:51:30	1.59931
27/10/2013 03:51:36	1.60343
27/10/2013 03:51:42	1.60758
27/10/2013 03:51:48	1.61176
27/10/2013 03:51:53	1.61597
27/10/2013 03:51:59	1.62021
27/10/2013 03:52:05	1.62448
27/10/2013 03:52:11	1.62879
27/10/2013 03:52:17	1.63312
27/10/2013 03:52:23	1.63749
27/10/2013 03:52:29	1.64188
27/10/2013 03:52:35	1.64631
27/10/2013 03:52:41	1.65077
27/10/2013 03:52:46	1.65526
27/10/2013 03:52:52	1.65978
27/10/2013 03:52:58	1.66433
27/10/2013 03:53:04	1.66892
27/10/2013 03:53:10	1.67354
27/10/2013 03:53:16	1.67819
27/10/2013 03:53:22	1.68287
27/10/2013 03:53:28	1.68759
27/10/2013 03:53:34	1.69234
27/10/2013 03:53:39	1.69712
27/10/2013 03:53:45	1.70194
27/10/2013 03:53:51	1.70679
27/10/2013 03:53:57	1.71167
27/10/2013 03:54:03	1.71659
27/10/2013 03:54:09	1.72154
27/10/2013 03:54:15	1.72653
27/10/2013 03:54:21	1.73155
27/10/2013 03:54:27	1.73661
27/10/2013 03:54:32	1.7417
27/10/2013 03:54:38	1.74682
27/10/2013 03:54:44	1.75199
27/10/2013 03:54:50	1.75718
27/10/2013 03:54:56	1.76242
27/10/2013 03:55:02	1.76769
27/10/2013 03:55:08	1.77299
27/10/2013 03:55:14	1.77834
27/10/2013 03:55:20	1.78371
27/10/2013 03:55:25	1.78913
27/10/2013 03:55:31	1.79458
27/10/2013 03:55:37	1.80007
27/10/2013 03:55:43	1.8056
27/10/2013 03:55:49	1.81116
27/10/2013 03:55:55	1.81677
27/10/2013 03:56:01	1.82241
27/10/2013 03:56:07	1.82809
27/10/2013 03:56:12	1.8338
27/10/2013 03:56:18	1.83956
27/10/2013 03:56:24	1.84535
27/10/2013 03:56:30	1.85119
27/10/2013 03:56:36	1.85706
27/10/2013 03:56:42	1.86297
27/10/2013 03:56:48	1.86892
27/10/2013 03:56:54	1.87492
27/10/2013 03:57:00	1.88095
27/10/2013 03:57:05	1.88702
27/10/2013 03:57:11	1.89313
27/10/2013 03:57:17	1.89928
27/10/2013 03:57:23	1.90548
27/10/2013 03:57:29	1.91171
27/10/2013 03:57:35	1.91799
27/10/2013 03:57:41	1.92431
27/10/2013 03:57:47	1.93067
27/10/2013 03:57:53	1.93707
27/10/2013 03:57:58	1.94351
27/10/2013 03:58:04	1.95
27/10/2013 03:58:10	1.95653
27/10/2013 03:58:16	1.9631
27/10/2013 03:58:22	1.96972
27/10/2013 03:58:28	1.97637
27/10/2013 03:58:34	1.98307
27/10/2013 03:58:40	1.98982
27/10/2013 03:58:46	1.99661
27/10/2013 03:58:51	2.00344
27/10/2013 03:58:57	2.01032
27/10/2013 03:59:03	2.01724
27/10/2013 03:59:09	2.02421
27/10/2013 03:59:15	2.03122
27/10/2013 03:59:21	2.03828
27/10/2013 03:59:27	2.04538
27/10/2013 03:59:33	2.05253
27/10/2013 03:59:38	2.05972
27/10/2013 03:59:44	2.06696
27/10/2013 03:59:50	2.07425
27/10/2013 03:59:56	2.08158
27/10/2013 04:00:02	2.08896
27/10/2013 04:00:08	2.09639
27/10/2013 04:00:14	2.10386
27/10/2013 04:00:20	2.11138
27/10/2013 04:00:26	2.11895
27/10/2013 04:00:31	2.12657
27/10/2013 04:00:37	2.13424
27/10/2013 04:00:43	2.14195
27/10/2013 04:00:49	2.14971
27/10/2013 04:00:55	2.15752
27/10/2013 04:01:01	2.16538
27/10/2013 04:01:07	2.17329
27/10/2013 04:01:13	2.18125
27/10/2013 04:01:19	2.18926
27/10/2013 04:01:24	2.19732
27/10/2013 04:01:30	2.20543
27/10/2013 04:01:36	2.21359
27/10/2013 04:01:42	2.2218
27/10/2013 04:01:48	2.23006
27/10/2013 04:01:54	2.23837
27/10/2013 04:02:00	2.24674
27/10/2013 04:02:06	2.25515
27/10/2013 04:02:12	2.26362
27/10/2013 04:02:17	2.27214
27/10/2013 04:02:23	2.28071
27/10/2013 04:02:29	2.28933
27/10/2013 04:02:35	2.29801
27/10/2013 04:02:41	2.30674
27/10/2013 04:02:47	2.31552
27/10/2013 04:02:53	2.32436
27/10/2013 04:02:59	2.33325
27/10/2013 04:03:04	2.3422
27/10/2013 04:03:10	2.3512
27/10/2013 04:03:16	2.36025
27/10/2013 04:03:22	2.36936
27/10/2013 04:03:28	2.37852
27/10/2013 04:03:34	2.38774
27/10/2013 04:03:40	2.39701
27/10/2013 04:03:46	2.40634
27/10/2013 04:03:52	2.41573
27/10/2013 04:03:57	2.42517
27/10/2013 04:04:03	2.43467
27/10/2013 04:04:09	2.44422
27/10/2013 04:04:15	2.45383
27/10/2013 04:04:21	2.4635
27/10/2013 04:04:27	2.47323
27/10/2013 04:04:33	2.48301
27/10/2013 04:04:39	2.49285
27/10/2013 04:04:45	2.50275
27/10/2013 04:04:50	2.51271
27/10/2013 04:04:56	2.52273
27/10/2013 04:05:02	2.5328
27/10/2013 04:05:08	2.54294
27/10/2013 04:05:14	2.55313
27/10/2013 04:05:20	2.56338
27/10/2013 04:05:26	2.5737
27/10/2013 04:05:32	2.58407
27/10/2013 04:05:38	2.5945
27/10/2013 04:05:43	2.605
27/10/2013 04:05:49	2.61555
27/10/2013 04:05:55	2.62617
27/10/2013 04:06:01	2.63685
27/10/2013 04:06:07	2.64759
27/10/2013 04:06:13	2.65839
27/10/2013 04:06:19	2.66925
27/10/2013 04:06:25	2.68017
27/10/2013 04:06:30	2.69116
27/10/2013 04:06:36	2.70221
27/10/2013 04:06:42	2.71333
27/10/2013 04:06:48	2.7245
27/10/2013 04:06:54	2.73574
27/10/2013 04:07:00	2.74705
27/10/2013 04:07:06	2.75842
27/10/2013 04:07:12	2.76985
27/10/2013 04:07:18	2.78134
27/10/2013 04:07:23	2.79291
27/10/2013 04:07:29	2.80453
27/10/2013 04:07:35	2.81622
27/10/2013 04:07:41	2.82798
27/10/2013 04:07:47	2.83981
27/10/2013 04:07:53	2.85169
27/10/2013 04:07:59	2.86365
27/10/2013 04:08:05	2.87567
27/10/2013 04:08:11	2.88776
27/10/2013 04:08:16	2.89992
27/10/2013 04:08:22	2.91214
27/10/2013 04:08:28	2.92443
27/10/2013 04:08:34	2.93679
27/10/2013 04:08:40	2.94921
27/10/2013 04:08:46	2.96171
27/10/2013 04:08:52	2.97427
27/10/2013 04:08:58	2.9869
27/10/2013 04:09:04	2.9996
27/10/2013 04:09:09	3.01237
27/10/2013 04:09:15	3.02521
27/10/2013 04:09:21	3.03812
27/10/2013 04:09:27	3.0511
27/10/2013 04:09:33	3.06415
27/10/2013 04:09:39	3.07727
27/10/2013 04:09:45	3.09046
27/10/2013 04:09:51	3.10372
27/10/2013 04:09:56	3.11706
27/10/2013 04:10:02	3.13046
27/10/2013 04:10:08	3.14394
27/10/2013 04:10:14	3.15748
27/10/2013 04:10:20	3.1711
27/10/2013 04:10:26	3.1848
27/10/2013 04:10:32	3.19856
27/10/2013 04:10:38	3.2124
27/10/2013 04:10:44	3.22631
27/10/2013 04:10:49	3.2403
27/10/2013 04:10:55	3.25435
27/10/2013 04:11:01	3.26849
27/10/2013 04:11:07	3.28269
27/10/2013 04:11:13	3.29697
27/10/2013 04:11:19	3.31133
27/10/2013 04:11:25	3.32576
27/10/2013 04:11:31	3.34027
27/10/2013 04:11:37	3.35485
27/10/2013 04:11:42	3.3695
27/10/2013 04:11:48	3.38424
27/10/2013 04:11:54	3.39904
27/10/2013 04:12:00	3.41393
27/10/2013 04:12:06	3.42889
27/10/2013 04:12:12	3.44393
27/10/2013 04:12:18	3.45904
27/10/2013 04:12:24	3.47424
27/10/2013 04:12:30	3.48951
27/10/2013 04:12:35	3.50485
27/10/2013 04:12:41	3.52028
27/10/2013 04:12:47	3.53579
27/10/2013 04:12:53	3.55137
27/10/2013 04:12:59	3.56703
27/10/2013 04:13:05	3.58277
27/10/2013 04:13:11	3.59859
27/10/2013 04:13:17	3.61449
27/10/2013 04:13:23	3.63047
27/10/2013 04:13:28	3.64653
27/10/2013 04:13:34	3.66266
27/10/2013 04:13:40	3.67888
27/10/2013 04:13:46	3.69518
27/10/2013 04:13:52	3.71156
27/10/2013 04:13:58	3.72802
27/10/2013 04:14:04	3.74457
27/10/2013 04:14:10	3.76119
27/10/2013 04:14:15	3.7779
27/10/2013 04:14:21	3.79469
27/10/2013 04:14:27	3.81156
27/10/2013 04:14:33	3.82851
27/10/2013 04:14:39	3.84554
27/10/2013 04:14:45	3.86266
27/10/2013 04:14:51	3.87986
27/10/2013 04:14:57	3.89715
27/10/2013 04:15:03	3.91452
27/10/2013 04:15:08	3.93197
27/10/2013 04:15:14	3.94951
27/10/2013 04:15:20	3.96713
27/10/2013 04:15:26	3.98483
27/10/2013 04:15:32	4.00262
27/10/2013 04:15:38	4.02049
27/10/2013 04:15:44	4.03845
27/10/2013 04:15:50	4.0565
27/10/2013 04:15:56	4.07463
27/10/2013 04:16:01	4.09284
27/10/2013 04:16:07	4.11115
27/10/2013 04:16:13	4.12953
27/10/2013 04:16:19	4.14801
27/10/2013 04:16:25	4.16657
27/10/2013 04:16:31	4.18522
27/10/2013 04:16:37	4.20395
27/10/2013 04:16:43	4.22277
27/10/2013 04:16:49	4.24168
27/10/2013 04:16:54	4.26068
27/10/2013 04:17:00	4.27977
27/10/2013 04:17:06	4.29894
27/10/2013 04:17:12	4.3182
27/10/2013 04:17:18	4.33755
27/10/2013 04:17:24	4.35699
27/10/2013 04:17:30	4.37652
27/10/2013 04:17:36	4.39613
27/10/2013 04:17:41	4.41584
27/10/2013 04:17:47	4.43563
27/10/2013 04:17:53	4.45552
27/10/2013 04:17:59	4.47549
27/10/2013 04:18:05	4.49556
27/10/2013 04:18:11	4.51571
27/10/2013 04:18:17	4.53596
27/10/2013 04:18:23	4.5563
27/10/2013 04:18:29	4.57672
27/10/2013 04:18:34	4.59724
27/10/2013 04:18:40	4.61785
27/10/2013 04:18:46	4.63855
27/10/2013 04:18:52	4.65934
27/10/2013 04:18:58	4.68023
27/10/2013 04:19:04	4.7012
27/10/2013 04:19:10	4.72227
27/10/2013 04:19:16	4.74343
27/10/2013 04:19:22	4.76468
27/10/2013 04:19:27	4.78603
27/10/2013 04:19:33	4.80746
27/10/2013 04:19:39	4.829
27/10/2013 04:19:45	4.85062
27/10/2013 04:19:51	4.87234
27/10/2013 04:19:57	4.89415
27/10/2013 04:20:03	4.91605
27/10/2013 04:20:09	4.93805
27/10/2013 04:20:15	4.96014
27/10/2013 04:20:20	4.98233
27/10/2013 04:20:26	5.00461
27/10/2013 04:20:32	5.02699
27/10/2013 04:20:38	5.04946
27/10/2013 04:20:44	5.07202
27/10/2013 04:20:50	5.09468
27/10/2013 04:20:56	5.11744
27/10/2013 04:21:02	5.14029
27/10/2013 04:21:07	5.16324
27/10/2013 04:21:13	5.18628
27/10/2013 04:21:19	5.20941
27/10/2013 04:21:25	5.23265
27/10/2013 04:21:31	5.25598
27/10/2013 04:21:37	5.2794
27/10/2013 04:21:43	5.30292
27/10/2013 04:21:49	5.32654
27/10/2013 04:21:55	5.35026
27/10/2013 04:22:00	5.37407
27/10/2013 04:22:06	5.39798
27/10/2013 04:22:12	5.42198
27/10/2013 04:22:18	5.44609
27/10/2013 04:22:24	5.47029
27/10/2013 04:22:30	5.49458
27/10/2013 04:22:36	5.51898
27/10/2013 04:22:42	5.54347
27/10/2013 04:22:48	5.56806
27/10/2013 04:22:53	5.59275
27/10/2013 04:22:59	5.61753
27/10/2013 04:23:05	5.64242
27/10/2013 04:23:11	5.6674
27/10/2013 04:23:17	5.69248
27/10/2013 04:23:23	5.71766
27/10/2013 04:23:29	5.74294
27/10/2013 04:23:35	5.76832
27/10/2013 04:23:41	5.79379
27/10/2013 04:23:46	5.81937
27/10/2013 04:23:52	5.84504
27/10/2013 04:23:58	5.87081
27/10/2013 04:24:04	5.89669
27/10/2013 04:24:10	5.92266
27/10/2013 04:24:16	5.94873
27/10/2013 04:24:22	5.9749
27/10/2013 04:24:28	6.00117
27/10/2013 04:24:33	6.02754
27/10/2013 04:24:39	6.05401
27/10/2013 04:24:45	6.08057
27/10/2013 04:24:51	6.10724
27/10/2013 04:24:57	6.13401
27/10/2013 04:25:03	6.16088
27/10/2013 04:25:09	6.18785
27/10/2013 04:25:15	6.21492
27/10/2013 04:25:21	6.24209
27/10/2013 04:25:26	6.26936
27/10/2013 04:25:32	6.29673
27/10/2013 04:25:38	6.3242
27/10/2013 04:25:44	6.35177
27/10/2013 04:25:50	6.37945
27/10/2013 04:25:56	6.40722
27/10/2013 04:26:02	6.43509
27/10/2013 04:26:08	6.46307
27/10/2013 04:26:14	6.49115
27/10/2013 04:26:19	6.51932
27/10/2013 04:26:25	6.5476
27/10/2013 04:26:31	6.57598
27/10/2013 04:26:37	6.60446
27/10/2013 04:26:43	6.63304
27/10/2013 04:26:49	6.66172
27/10/2013 04:26:55	6.6905
27/10/2013 04:27:01	6.71939
27/10/2013 04:27:07	6.74837
27/10/2013 04:27:12	6.77746
27/10/2013 04:27:18	6.80665
27/10/2013 04:27:24	6.83594
27/10/2013 04:27:30	6.86533
27/10/2013 04:27:36	6.89482
27/10/2013 04:27:42	6.92441
27/10/2013 04:27:48	6.95411
27/10/2013 04:27:54	6.98391
27/10/2013 04:28:00	7.0138
27/10/2013 04:28:05	7.0438
27/10/2013 04:28:11	7.0739
27/10/2013 04:28:17	7.1041
27/10/2013 04:28:23	7.13441
27/10/2013 04:28:29	7.16481
27/10/2013 04:28:35	7.19532
27/10/2013 04:28:41	7.22593
27/10/2013 04:28:47	7.25664
27/10/2013 04:28:52	7.28745
27/10/2013 04:28:58	7.31836
27/10/2013 04:29:04	7.34937
27/10/2013 04:29:10	7.38048
27/10/2013 04:29:16	7.4117
27/10/2013 04:29:22	7.44302
27/10/2013 04:29:28	7.47443
27/10/2013 04:29:34	7.50595
27/10/2013 04:29:40	7.53757
27/10/2013 04:29:45	7.5693
27/10/2013 04:29:51	7.60112
27/10/2013 04:29:57	7.63304
27/10/2013 04:30:03	7.66507
27/10/2013 04:30:09	7.69719
27/10/2013 04:30:15	7.72942
27/10/2013 04:30:21	7.76174
27/10/2013 04:30:27	7.79417
27/10/2013 04:30:33	7.8267
27/10/2013 04:30:38	7.85933
27/10/2013 04:30:44	7.89206
27/10/2013 04:30:50	7.92489
27/10/2013 04:30:56	7.95782
27/10/2013 04:31:02	7.99085
27/10/2013 04:31:08	8.02398
27/10/2013 04:31:14	8.05721
27/10/2013 04:31:20	8.09055
27/10/2013 04:31:26	8.12398
27/10/2013 04:31:31	8.15751
27/10/2013 04:31:37	8.19114
27/10/2013 04:31:43	8.22487
27/10/2013 04:31:49	8.2587
27/10/2013 04:31:55	8.29263
27/10/2013 04:32:01	8.32666
27/10/2013 04:32:07	8.36079
27/10/2013 04:32:13	8.39502
27/10/2013 04:32:18	8.42934
27/10/2013 04:32:24	8.46377
27/10/2013 04:32:30	8.4983
27/10/2013 04:32:36	8.53292
27/10/2013 04:32:42	8.56764
27/10/2013 04:32:48	8.60246
27/10/2013 04:32:54	8.63738
27/10/2013 04:33:00	8.6724
27/10/2013 04:33:06	8.70751
27/10/2013 04:33:11	8.74273
27/10/2013 04:33:17	8.77804
27/10/2013 04:33:23	8.81344
27/10/2013 04:33:29	8.84895
27/10/2013 04:33:35	8.88455
27/10/2013 04:33:41	8.92025
27/10/2013 04:33:47	8.95605
27/10/2013 04:33:53	8.99194
27/10/2013 04:33:59	9.02793
27/10/2013 04:34:04	9.06402
27/10/2013 04:34:10	9.1002
27/10/2013 04:34:16	9.13648
27/10/2013 04:34:22	9.17286
27/10/2013 04:34:28	9.20933
27/10/2013 04:34:34	9.2459
27/10/2013 04:34:40	9.28256
27/10/2013 04:34:46	9.31932
27/10/2013 04:34:52	9.35617
27/10/2013 04:34:57	9.39312
27/10/2013 04:35:03	9.43016
27/10/2013 04:35:09	9.46729
27/10/2013 04:35:15	9.50452
27/10/2013 04:35:21	9.54185
27/10/2013 04:35:27	9.57926
27/10/2013 04:35:33	9.61677
27/10/2013 04:35:39	9.65438
27/10/2013 04:35:44	9.69208
27/10/2013 04:35:50	9.72987
27/10/2013 04:35:56	9.76775
27/10/2013 04:36:02	9.80572
27/10/2013 04:36:08	9.84379
27/10/2013 04:36:14	9.88195
27/10/2013 04:36:20	9.9202
27/10/2013 04:36:26	9.95854
27/10/2013 04:36:32	9.99697
27/10/2013 04:36:37	10.0355
27/10/2013 04:36:43	10.0741
27/10/2013 04:36:49	10.1128
27/10/2013 04:36:55	10.1516
27/10/2013 04:37:01	10.1905
27/10/2013 04:37:07	10.2295
27/10/2013 04:37:13	10.2685
27/10/2013 04:37:19	10.3077
27/10/2013 04:37:25	10.3469
27/10/2013 04:37:30	10.3863
27/10/2013 04:37:36	10.4257
27/10/2013 04:37:42	10.4652
27/10/2013 04:37:48	10.5048
27/10/2013 04:37:54	10.5444
27/10/2013 04:38:00	10.5842
27/10/2013 04:38:06	10.6241
27/10/2013 04:38:12	10.664
27/10/2013 04:38:18	10.704
27/10/2013 04:38:23	10.7441
27/10/2013 04:38:29	10.7843
27/10/2013 04:38:35	10.8246
27/10/2013 04:38:41	10.865
27/10/2013 04:38:47	10.9054
27/10/2013 04:38:53	10.946
27/10/2013 04:38:59	10.9866
27/10/2013 04:39:05	11.0273
27/10/2013 04:39:10	11.0681
27/10/2013 04:39:16	11.1089
27/10/2013 04:39:22	11.1499
27/10/2013 04:39:28	11.1909
27/10/2013 04:39:34	11.232
27/10/2013 04:39:40	11.2732
27/10/2013 04:39:46	11.3145
27/10/2013 04:39:52	11.3558
27/10/2013 04:39:58	11.3972
27/10/2013 04:40:03	11.4388
27/10/2013 04:40:09	11.4803
27/10/2013 04:40:15	11.522
27/10/2013 04:40:21	11.5638
27/10/2013 04:40:27	11.6056
27/10/2013 04:40:33	11.6475
27/10/2013 04:40:39	11.6895
27/10/2013 04:40:45	11.7315
27/10/2013 04:40:51	11.7737
27/10/2013 04:40:56	11.8159
27/10/2013 04:41:02	11.8582
27/10/2013 04:41:08	11.9005
27/10/2013 04:41:14	11.943
27/10/2013 04:41:20	11.9855
27/10/2013 04:41:26	12.028
27/10/2013 04:41:32	12.0707
27/10/2013 04:41:38	12.1134
27/10/2013 04:41:44	12.1562
27/10/2013 04:41:49	12.1991
27/10/2013 04:41:55	12.242
27/10/2013 04:42:01	12.2851
27/10/2013 04:42:07	12.3282
27/10/2013 04:42:13	12.3713
27/10/2013 04:42:19	12.4145
27/10/2013 04:42:25	12.4578
27/10/2013 04:42:31	12.5012
27/10/2013 04:42:36	12.5446
27/10/2013 04:42:42	12.5881
27/10/2013 04:42:48	12.6317
27/10/2013 04:42:54	12.6753
27/10/2013 04:43:00	12.719
27/10/2013 04:43:06	12.7628
27/10/2013 04:43:12	12.8066
27/10/2013 04:43:18	12.8505
27/10/2013 04:43:24	12.8945
27/10/2013 04:43:29	12.9385
27/10/2013 04:43:35	12.9826
27/10/2013 04:43:41	13.0268
27/10/2013 04:43:47	13.071
27/10/2013 04:43:53	13.1152
27/10/2013 04:43:59	13.1596
27/10/2013 04:44:05	13.204
27/10/2013 04:44:11	13.2484
27/10/2013 04:44:17	13.293
27/10/2013 04:44:22	13.3375
27/10/2013 04:44:28	13.3822
27/10/2013 04:44:34	13.4269
27/10/2013 04:44:40	13.4716
27/10/2013 04:44:46	13.5164
27/10/2013 04:44:52	13.5613
27/10/2013 04:44:58	13.6062
27/10/2013 04:45:04	13.6512
27/10/2013 04:45:10	13.6962
27/10/2013 04:45:15	13.7413
27/10/2013 04:45:21	13.7864
27/10/2013 04:45:27	13.8316
27/10/2013 04:45:33	13.8769
27/10/2013 04:45:39	13.9222
27/10/2013 04:45:45	13.9675
27/10/2013 04:45:51	14.0129
27/10/2013 04:45:57	14.0584
27/10/2013 04:46:03	14.1039
27/10/2013 04:46:08	14.1494
27/10/2013 04:46:14	14.195
27/10/2013 04:46:20	14.2406
27/10/2013 04:46:26	14.2863
27/10/2013 04:46:32	14.3321
27/10/2013 04:46:38	14.3778
27/10/2013 04:46:44	14.4237
27/10/2013 04:46:50	14.4695
27/10/2013 04:46:55	14.5155
27/10/2013 04:47:01	14.5614
27/10/2013 04:47:07	14.6074
27/10/2013 04:47:13	14.6535
27/10/2013 04:47:19	14.6995
27/10/2013 04:47:25	14.7457
27/10/2013 04:47:31	14.7918
27/10/2013 04:47:37	14.838
27/10/2013 04:47:43	14.8843
27/10/2013 04:47:48	14.9306
27/10/2013 04:47:54	14.9769
27/10/2013 04:48:00	15.0232
27/10/2013 04:48:06	15.0696
27/10/2013 04:48:12	15.116
27/10/2013 04:48:18	15.1625
27/10/2013 04:48:24	15.209
27/10/2013 04:48:30	15.2555
27/10/2013 04:48:36	15.3021
27/10/2013 04:48:41	15.3487
27/10/2013 04:48:47	15.3953
27/10/2013 04:48:53	15.442
27/10/2013 04:48:59	15.4887
27/10/2013 04:49:05	15.5354
27/10/2013 04:49:11	15.5821
27/10/2013 04:49:17	15.6289
27/10/2013 04:49:23	15.6757
27/10/2013 04:49:29	15.7225
27/10/2013 04:49:34	15.7694
27/10/2013 04:49:40	15.8162
27/10/2013 04:49:46	15.8631
27/10/2013 04:49:52	15.9101
27/10/2013 04:49:58	15.957
27/10/2013 04:50:04	16.004
27/10/2013 04:50:10	16.051
27/10/2013 04:50:16	16.098
27/10/2013 04:50:21	16.145
27/10/2013 04:50:27	16.1921
27/10/2013 04:50:33	16.2391
27/10/2013 04:50:39	16.2862
27/10/2013 04:50:45	16.3333
27/10/2013 04:50:51	16.3805
27/10/2013 04:50:57	16.4276
27/10/2013 04:51:03	16.4747
27/10/2013 04:51:09	16.5219
27/10/2013 04:51:14	16.5691
27/10/2013 04:51:20	16.6163
27/10/2013 04:51:26	16.6635
27/10/2013 04:51:32	16.7107
27/10/2013 04:51:38	16.7579
27/10/2013 04:51:44	16.8051
27/10/2013 04:51:50	16.8524
27/10/2013 04:51:56	16.8996
27/10/2013 04:52:02	16.9469
27/10/2013 04:52:07	16.9942
27/10/2013 04:52:13	17.0414
27/10/2013 04:52:19	17.0887
27/10/2013 04:52:25	17.136
27/10/2013 04:52:31	17.1832
27/10/2013 04:52:37	17.2305
27/10/2013 04:52:43	17.2778
27/10/2013 04:52:49	17.3251
27/10/2013 04:52:55	17.3724
27/10/2013 04:53:00	17.4197
27/10/2013 04:53:06	17.4669
27/10/2013 04:53:12	17.5142
27/10/2013 04:53:18	17.5615
27/10/2013 04:53:24	17.6088
27/10/2013 04:53:30	17.656
27/10/2013 04:53:36	17.7033
27/10/2013 04:53:42	17.7506
27/10/2013 04:53:47	17.7978
27/10/2013 04:53:53	17.845
27/10/2013 04:53:59	17.8923
27/10/2013 04:54:05	17.9395
27/10/2013 04:54:11	17.9867
27/10/2013 04:54:17	18.0339
27/10/2013 04:54:23	18.0811
27/10/2013 04:54:29	18.1283
27/10/2013 04:54:35	18.1754
27/10/2013 04:54:40	18.2226
27/10/2013 04:54:46	18.2697
27/10/2013 04:54:52	18.3168
27/10/2013 04:54:58	18.3639
27/10/2013 04:55:04	18.411
27/10/2013 04:55:10	18.458
27/10/2013 04:55:16	18.5051
27/10/2013 04:55:22	18.5521
27/10/2013 04:55:28	18.5991
27/10/2013 04:55:33	18.646
27/10/2013 04:55:39	18.693
27/10/2013 04:55:45	18.7399
27/10/2013 04:55:51	18.7868
27/10/2013 04:55:57	18.8337
27/10/2013 04:56:03	18.8805
27/10/2013 04:56:09	18.9273
27/10/2013 04:56:15	18.9741
27/10/2013 04:56:21	19.0209
27/10/2013 04:56:26	19.0676
27/10/2013 04:56:32	19.1143
27/10/2013 04:56:38	19.161
27/10/2013 04:56:44	19.2076
27/10/2013 04:56:50	19.2542
27/10/2013 04:56:56	19.3008
27/10/2013 04:57:02	19.3473
27/10/2013 04:57:08	19.3938
27/10/2013 04:57:13	19.4402
27/10/2013 04:57:19	19.4867
27/10/2013 04:57:25	19.533
27/10/2013 04:57:31	19.5794
27/10/2013 04:57:37	19.6257
27/10/2013 04:57:43	19.6719
27/10/2013 04:57:49	19.7181
27/10/2013 04:57:55	19.7643
27/10/2013 04:58:01	19.8104
27/10/2013 04:58:06	19.8565
27/10/2013 04:58:12	19.9025
27/10/2013 04:58:18	19.9485
27/10/2013 04:58:24	19.9945
27/10/2013 04:58:30	20.0403
27/10/2013 04:58:36	20.0862
27/10/2013 04:58:42	20.132
27/10/2013 04:58:48	20.1777
27/10/2013 04:58:54	20.2234
27/10/2013 04:58:59	20.269
27/10/2013 04:59:05	20.3146
27/10/2013 04:59:11	20.3601
27/10/2013 04:59:17	20.4056
27/10/2013 04:59:23	20.451
27/10/2013 04:59:29	20.4963
27/10/2013 04:59:35	20.5416
27/10/2013 04:59:41	20.5868
27/10/2013 04:59:47	20.632
27/10/2013 04:59:52	20.6771
27/10/2013 04:59:58	20.7222
27/10/2013 05:00:04	20.7671
27/10/2013 05:00:10	20.8121
27/10/2013 05:00:16	20.8569
27/10/2013 05:00:22	20.9017
27/10/2013 05:00:28	20.9464
27/10/2013 05:00:34	20.9911
27/10/2013 05:00:40	21.0356
